C:\Users\lars_\Documents\NetBeansProjects\Kwetter_v3\src\test\java\TestSuiteDao.java
C:\Users\lars_\Documents\NetBeansProjects\Kwetter_v3\src\test\java\TestSuiteService.java
C:\Users\lars_\Documents\NetBeansProjects\Kwetter_v3\src\test\java\tests\model\TweetTest.java
C:\Users\lars_\Documents\NetBeansProjects\Kwetter_v3\src\test\java\tests\model\UserTest.java
C:\Users\lars_\Documents\NetBeansProjects\Kwetter_v3\src\test\java\tests\service\UserServiceTest.java
C:\Users\lars_\Documents\NetBeansProjects\Kwetter_v3\src\test\java\tests\model\ProfileTest.java
C:\Users\lars_\Documents\NetBeansProjects\Kwetter_v3\src\test\java\tests\dao\TweetDaoImpTest.java
C:\Users\lars_\Documents\NetBeansProjects\Kwetter_v3\src\test\java\tests\service\TweetServiceTest.java
C:\Users\lars_\Documents\NetBeansProjects\Kwetter_v3\src\test\java\tests\controller\UserControllerTest.java
C:\Users\lars_\Documents\NetBeansProjects\Kwetter_v3\src\test\java\tests\dao\UserDaoImpTest.java
C:\Users\lars_\Documents\NetBeansProjects\Kwetter_v3\src\test\java\tests\controller\TweetControllerTest.java
C:\Users\lars_\Documents\NetBeansProjects\Kwetter_v3\src\test\java\TestSuiteAll.java
C:\Users\lars_\Documents\NetBeansProjects\Kwetter_v3\src\test\java\tests\dao\ProfileDaoImpTest.java
C:\Users\lars_\Documents\NetBeansProjects\Kwetter_v3\src\test\java\TestSuiteController.java
C:\Users\lars_\Documents\NetBeansProjects\Kwetter_v3\src\test\java\TestSuiteModel.java
C:\Users\lars_\Documents\NetBeansProjects\Kwetter_v3\src\test\java\tests\controller\ProfileControllerTest.java
C:\Users\lars_\Documents\NetBeansProjects\Kwetter_v3\src\test\java\tests\service\ProfileServiceTest.java
